<?xml version="1.0" encoding="UTF-8" standalone="no"?>
<!DOCTYPE svg PUBLIC "-//W3C//DTD SVG 1.1//EN" "http://www.w3.org/Graphics/SVG/1.1/DTD/svg11.dtd">
<svg xmlns="http://www.w3.org/2000/svg" xmlns:xlink="http://www.w3.org/1999/xlink" version="1.1" width="272.126pt" height="59.528pt" viewBox="0 0 272.126 59.528">
<g enable-background="new">
<path transform="matrix(1,0,0,-1,28.03,5.0820009)" d="M 0 -23.8112 L -23.8112 -23.8112 L -23.8112 -47.62242 L 0 -47.62242 Z " fill="#505050"/>
<path transform="matrix(1,0,0,-1,28.03,5.0820009)" stroke-width=".99628" stroke-linecap="butt" stroke-miterlimit="10" stroke-linejoin="miter" fill="none" stroke="#000000" d="M 0 -23.8112 L -23.8112 -23.8112 L -23.8112 -47.62242 L 0 -47.62242 Z "/>
<path transform="matrix(1,0,0,-1,28.03,5.0820009)" d="M 0 -23.8112 L 4.58357 -19.2276 L 4.58357 -43.03883 L 0 -47.62242 Z " fill="#505050"/>
<path transform="matrix(1,0,0,-1,28.03,5.0820009)" stroke-width=".99628" stroke-linecap="butt" stroke-miterlimit="10" stroke-linejoin="miter" fill="none" stroke="none" d="M 0 -23.8112 L 4.58357 -19.2276 L 4.58357 -43.03883 L 0 -47.62242 Z "/>
<path transform="matrix(1,0,0,-1,28.03,5.0820009)" d="M 0 -23.8112 L -23.8112 -23.8112 L -19.2276 -19.2276 L 4.58357 -19.2276 Z " fill="#505050"/>
<path transform="matrix(1,0,0,-1,28.03,5.0820009)" stroke-width=".99628" stroke-linecap="butt" stroke-miterlimit="10" stroke-linejoin="miter" fill="none" stroke="#ffffff" d="M 0 -23.8112 L -23.8112 -23.8112 L -19.2276 -19.2276 L 4.58357 -19.2276 Z "/>
<symbol id="font_0_1">
<path d="M .62900009 .284 L .53300008 .284 C .51100006 .14600002 .45300005 .082 .33 .082 C .185 .082 .093 .19300002 .093 .37500004 C .093 .56200006 .18100003 .683 .322 .683 C .43600003 .683 .49600003 .632 .51900008 .521 L .6140001 .521 C .58500006 .68100008 .493 .76500007 .333 .76500007 C .11200001 .76500007 0 .587 0 .374 C 0 .16100002 .115 0 .329 0 C .507 0 .60700008 .094000007 .62900009 .284 Z "/>
</symbol>
<use xlink:href="#font_0_1" transform="matrix(24.7871,0,0,-24.7871,8.365782,50.316167)" fill="#ffffff"/>
<path transform="matrix(1,0,0,-1,28.03,5.0820009)" d="M 23.8112 -23.8112 L 0 -23.8112 L 0 -47.62242 L 23.8112 -47.62242 Z " fill="#548235"/>
<path transform="matrix(1,0,0,-1,28.03,5.0820009)" stroke-width=".99628" stroke-linecap="butt" stroke-miterlimit="10" stroke-linejoin="miter" fill="none" stroke="none" d="M 23.8112 -23.8112 L 0 -23.8112 L 0 -47.62242 L 23.8112 -47.62242 Z "/>
<path transform="matrix(1,0,0,-1,28.03,5.0820009)" d="M 23.8112 -23.8112 L 28.39479 -19.2276 L 28.39479 -43.03883 L 23.8112 -47.62242 Z " fill="#548235"/>
<path transform="matrix(1,0,0,-1,28.03,5.0820009)" stroke-width=".99628" stroke-linecap="butt" stroke-miterlimit="10" stroke-linejoin="miter" fill="none" stroke="#000000" d="M 23.8112 -23.8112 L 28.39479 -19.2276 L 28.39479 -43.03883 L 23.8112 -47.62242 Z "/>
<path transform="matrix(1,0,0,-1,28.03,5.0820009)" d="M 23.8112 -23.8112 L 0 -23.8112 L 4.58357 -19.2276 L 28.39479 -19.2276 Z " fill="#548235"/>
<path transform="matrix(1,0,0,-1,28.03,5.0820009)" stroke-width=".99628" stroke-linecap="butt" stroke-miterlimit="10" stroke-linejoin="miter" fill="none" stroke="#000000" d="M 23.8112 -23.8112 L 0 -23.8112 L 4.58357 -19.2276 L 28.39479 -19.2276 Z "/>
<symbol id="font_0_3">
<path d="M .45300005 0 L .45300005 .082 L .093 .082 L .093 .72900006 L 0 .72900006 L 0 0 L .45300005 0 Z "/>
</symbol>
<use xlink:href="#font_0_3" transform="matrix(24.7871,0,0,-24.7871,34.96597,49.87)" fill="#ffffff"/>
<path transform="matrix(1,0,0,-1,28.03,5.0820009)" d="M 0 0 L -23.8112 0 L -23.8112 -23.8112 L 0 -23.8112 Z " fill="#63aa4a"/>
<path transform="matrix(1,0,0,-1,28.03,5.0820009)" stroke-width=".99628" stroke-linecap="butt" stroke-miterlimit="10" stroke-linejoin="miter" fill="none" stroke="#000000" d="M 0 0 L -23.8112 0 L -23.8112 -23.8112 L 0 -23.8112 Z "/>
<path transform="matrix(1,0,0,-1,28.03,5.0820009)" d="M 0 0 L 4.58357 4.58357 L 4.58357 -19.2276 L 0 -23.8112 Z " fill="#63aa4a"/>
<path transform="matrix(1,0,0,-1,28.03,5.0820009)" stroke-width=".99628" stroke-linecap="butt" stroke-miterlimit="10" stroke-linejoin="miter" fill="none" stroke="#000000" d="M 0 0 L 4.58357 4.58357 L 4.58357 -19.2276 L 0 -23.8112 Z "/>
<path transform="matrix(1,0,0,-1,28.03,5.0820009)" d="M 0 0 L -23.8112 0 L -19.2276 4.58357 L 4.58357 4.58357 Z " fill="#63aa4a"/>
<path transform="matrix(1,0,0,-1,28.03,5.0820009)" stroke-width=".99628" stroke-linecap="butt" stroke-miterlimit="10" stroke-linejoin="miter" fill="none" stroke="#000000" d="M 0 0 L -23.8112 0 L -19.2276 4.58357 L 4.58357 4.58357 Z "/>
<symbol id="font_0_2">
<path d="M .665 .018000002 L .665 .40300004 L .36100004 .40300004 L .36100004 .321 L .583 .321 L .583 .30100004 C .583 .17100002 .48700003 .082 .35400004 .082 C .18900001 .082 .09300001 .20200002 .09300001 .38000003 C .09300001 .559 .19500001 .683 .349 .683 C .46 .683 .54 .62000009 .56 .526 L .65500006 .526 C .629 .674 .517 .76500007 .35000003 .76500007 C .127 .76500007 0 .59300008 0 .37500004 C 0 .15100001 .13700001 0 .33400003 0 C .43300004 0 .512 .035000005 .583 .114 L .606 .018000002 L .665 .018000002 Z "/>
</symbol>
<use xlink:href="#font_0_2" transform="matrix(24.7871,0,0,-24.7871,7.572633,26.506169)" fill="#ffffff"/>
<path transform="matrix(1,0,0,-1,28.03,5.0820009)" d="M 23.8112 0 L 0 0 L 0 -23.8112 L 23.8112 -23.8112 Z " fill="#747474"/>
<path transform="matrix(1,0,0,-1,28.03,5.0820009)" stroke-width=".99628" stroke-linecap="butt" stroke-miterlimit="10" stroke-linejoin="miter" fill="none" stroke="#000000" d="M 23.8112 0 L 0 0 L 0 -23.8112 L 23.8112 -23.8112 Z "/>
<path transform="matrix(1,0,0,-1,28.03,5.0820009)" d="M 23.8112 0 L 28.39479 4.58357 L 28.39479 -19.2276 L 23.8112 -23.8112 Z " fill="#747474"/>
<path transform="matrix(1,0,0,-1,28.03,5.0820009)" stroke-width=".99628" stroke-linecap="butt" stroke-miterlimit="10" stroke-linejoin="miter" fill="none" stroke="#000000" d="M 23.8112 0 L 28.39479 4.58357 L 28.39479 -19.2276 L 23.8112 -23.8112 Z "/>
<path transform="matrix(1,0,0,-1,28.03,5.0820009)" d="M 23.8112 0 L 0 0 L 4.58357 4.58357 L 28.39479 4.58357 Z " fill="#747474"/>
<path transform="matrix(1,0,0,-1,28.03,5.0820009)" stroke-width=".99628" stroke-linecap="butt" stroke-miterlimit="10" stroke-linejoin="miter" fill="none" stroke="#000000" d="M 23.8112 0 L 0 0 L 4.58357 4.58357 L 28.39479 4.58357 Z "/>
<symbol id="font_0_4">
<path d="M .5730001 .21800001 C .5730001 .30800004 .517 .374 .418 .40100003 L .23500002 .45000003 C .14700002 .47300003 .115 .50200006 .115 .558 C .115 .632 .18 .68700006 .278 .68700006 C .39400003 .68700006 .46 .63400009 .46 .53900006 L .54800006 .53900006 C .54800006 .68200007 .449 .76500007 .28100003 .76500007 C .121000017 .76500007 .022 .67700007 .022 .545 C .022 .45600004 .069000009 .40000005 .16500002 .37500004 L .34600003 .32700003 C .43800003 .30300004 .48 .266 .48 .20900002 C .48 .12900001 .42000003 .082 .294 .082 C .15600002 .082 .08800001 .15100001 .08800001 .25500003 L 0 .25500003 C 0 .083000008 .116000007 0 .28800003 0 C .47300003 0 .5730001 .088 .5730001 .21800001 Z "/>
</symbol>
<use xlink:href="#font_0_4" transform="matrix(24.7871,0,0,-24.7871,32.85878,26.506169)"/>
<symbol id="font_1_3">
<path d="M .669 .012 L .669 .404 L .37700004 .404 L .37700004 .279 L .54300007 .279 C .53300008 .18800001 .44700004 .128 .358 .128 C .23700002 .128 .15 .229 .15 .379 C .15 .5360001 .22700003 .62500008 .35400004 .62500008 C .43600003 .62500008 .499 .59300008 .52800008 .508 L .669 .508 C .651 .65800008 .52900007 .7530001 .35300002 .7530001 C .143 .7530001 0 .60400006 0 .377 C 0 .156 .144 0 .34100003 0 C .43900005 0 .50500008 .035000005 .56100007 .112 L .57900008 .012 L .669 .012 Z "/>
</symbol>
<symbol id="font_1_8">
<path d="M .503 .259 C .503 .44500003 .409 .558 .25 .558 C .095000009 .558 0 .45300005 0 .272 C 0 .09900001 .094000007 0 .24700003 0 C .368 0 .46600003 .055000005 .49700005 .16100002 L .359 .16100002 C .347 .12200001 .303 .10700001 .252 .10700001 C .186 .10700001 .14400001 .13700001 .14 .24200002 L .50200006 .24200002 L .503 .259 M .357 .335 L .142 .335 C .15100001 .41000004 .186 .45100004 .24800001 .45100004 C .308 .45100004 .35 .41200004 .357 .335 Z "/>
</symbol>
<symbol id="font_1_13">
<path d="M .49100004 .16900002 L .49100004 .17600002 C .49100004 .23800002 .456 .284 .38500003 .305 L .20800002 .356 C .16900002 .367 .15900001 .37600003 .15900001 .39800004 C .15900001 .42800004 .19100002 .448 .24000003 .448 C .307 .448 .34 .42400003 .341 .37500004 L .47599999 .37500004 C .474 .48900003 .386 .558 .24100001 .558 C .104 .558 .019 .48900003 .019 .37800003 C .019 .312 .037 .27600003 .13700001 .24500002 L .304 .19300002 C .33900003 .18200001 .351 .171 .351 .156 C .351 .12300001 .312 .11000001 .24700003 .11000001 C .18300002 .11000001 .149 .12200001 .13700001 .18 L 0 .18 C .003999999 .062000004 .091000009 0 .255 0 C .407 0 .49100004 .060000004 .49100004 .16900002 Z "/>
</symbol>
<symbol id="font_1_d">
<path d="M .14000002 0 L .14000002 .72900006 L 0 .72900006 L 0 0 L .14000002 0 Z "/>
</symbol>
<symbol id="font_1_6">
<path d="M .488 .19600001 L .354 .19600001 C .336 .14000002 .308 .113000009 .254 .113000009 C .183 .113000009 .14000002 .17000002 .14000002 .275 C .14000002 .374 .16600001 .44500003 .254 .44500003 C .31100003 .44500003 .338 .418 .354 .34700004 L .488 .34700004 C .47800002 .47900004 .39000003 .558 .255 .558 C .094000007 .558 0 .45900003 0 .275 C 0 .09700001 .093 0 .253 0 C .384 0 .475 .08100001 .488 .19600001 Z "/>
</symbol>
<symbol id="font_1_b">
<path d="M .474 0 L .474 .36200003 C .474 .48800005 .4 .549 .298 .549 C .229 .549 .179 .521 .14000002 .462 L .14000002 .72900006 L 0 .72900006 L 0 0 L .14000002 0 L .14000002 .324 C .14000002 .386 .185 .43 .24800003 .43 C .298 .43 .33400003 .40300004 .33400003 .33 L .33400003 0 L .474 0 Z "/>
</symbol>
<symbol id="font_1_5">
<path d="M .49600006 .009000001 L .49600006 .026 C .47100003 .049000004 .46400003 .064 .46400003 .09200001 L .46400003 .39200003 C .46400003 .50200006 .38900004 .558 .24300003 .558 C .097 .558 .021000002 .49600003 .012000002 .37100003 L .14700002 .37100003 C .15400002 .42700003 .17700002 .44500003 .24600002 .44500003 C .3 .44500003 .32700003 .42700003 .32700003 .39100004 C .32700003 .33400003 .28500004 .34000004 .21500002 .328 L .15900001 .31800003 C .052000006 .29900003 0 .25300003 0 .15500002 C 0 .05 .074 0 .164 0 C .224 0 .279 .026 .328 .07700001 C .328 .049000004 .33100004 .025000003 .344 .009000001 L .49600006 .009000001 M .32700003 .24000001 C .32700003 .15900001 .28700004 .113000009 .21600002 .113000009 C .16900002 .113000009 .14000002 .13100001 .14000002 .171 C .14000002 .21200001 .16200002 .22700002 .22000002 .23800002 L .268 .24700001 C .305 .254 .31100003 .256 .32700003 .26400004 L .32700003 .24000001 Z "/>
</symbol>
<symbol id="font_1_9">
<path d="M .29900003 .43600003 L .29900003 .52900007 L .216 .52900007 L .216 .582 C .216 .61 .22800002 .624 .254 .624 C .266 .624 .282 .623 .29400004 .62100008 L .29400004 .726 C .268 .72800007 .23300001 .72900006 .21400002 .72900006 C .12100001 .72900006 .076000008 .68500009 .076000008 .59400007 L .076000008 .52900007 L 0 .52900007 L 0 .43600003 L .076000008 .43600003 L .076000008 0 L .216 0 L .216 .43600003 L .29900003 .43600003 Z "/>
</symbol>
<symbol id="font_1_14">
<path d="M .28700004 .004 L .28700004 .102000009 C .273 .1 .26500003 .09900001 .25500003 .09900001 C .21800001 .09900001 .209 .11000001 .209 .158 L .209 .44000004 L .28700004 .44000004 L .28700004 .53300008 L .209 .53300008 L .209 .67800006 L .069000009 .67800006 L .069000009 .53300008 L 0 .53300008 L 0 .44000004 L .069000009 .44000004 L .069000009 .120000008 C .069000009 .035 .11400001 0 .20600002 0 C .23700002 0 .26200003 .003 .28700004 .004 Z "/>
</symbol>
<symbol id="font_1_1">
<path d="M .126 0 L .126 .11500001 L 0 .11500001 L 0 0 L .126 0 M .321 0 L .321 .11500001 L .19500001 .11500001 L .19500001 0 L .321 0 Z "/>
</symbol>
<symbol id="font_1_15">
<path d="M .483 .009000001 L .483 .549 L .34300003 .549 L .34300003 .22500001 C .34300003 .16100002 .298 .11900001 .23000002 .11900001 C .17000002 .11900001 .14000002 .15100001 .14000002 .21600002 L .14000002 .549 L 0 .549 L 0 .187 C 0 .068 .066 0 .18100001 0 C .254 0 .30300004 .027000003 .34300003 .080000009 L .34300003 .009000001 L .483 .009000001 Z "/>
</symbol>
<symbol id="font_1_12">
<path d="M .307 .40600003 L .307 .54800006 C .29900003 .549 .29400004 .549 .29000003 .549 C .22600001 .549 .17000002 .507 .14000002 .43400003 L .14000002 .54 L 0 .54 L 0 0 L .14000002 0 L .14000002 .287 C .14000002 .36900003 .18100003 .41000004 .263 .41000004 C .27800004 .41000004 .28800003 .409 .307 .40600003 Z "/>
</symbol>
<use xlink:href="#font_1_3" transform="matrix(14.3462,0,0,-14.3462,63.565538,16.443154)" fill="#ffffff"/>
<use xlink:href="#font_1_8" transform="matrix(14.3462,0,0,-14.3462,74.43996,16.400116)" fill="#ffffff"/>
<use xlink:href="#font_1_13" transform="matrix(14.3462,0,0,-14.3462,82.51687,16.400116)" fill="#ffffff"/>
<use xlink:href="#font_1_8" transform="matrix(14.3462,0,0,-14.3462,90.39293,16.400116)" fill="#ffffff"/>
<use xlink:href="#font_1_d" transform="matrix(14.3462,0,0,-14.3462,99.015,16.271)" fill="#ffffff"/>
<use xlink:href="#font_1_d" transform="matrix(14.3462,0,0,-14.3462,103.003238,16.271)" fill="#ffffff"/>
<use xlink:href="#font_1_13" transform="matrix(14.3462,0,0,-14.3462,106.44633,16.400116)" fill="#ffffff"/>
<use xlink:href="#font_1_6" transform="matrix(14.3462,0,0,-14.3462,114.494548,16.400116)" fill="#ffffff"/>
<use xlink:href="#font_1_b" transform="matrix(14.3462,0,0,-14.3462,122.94446,16.271)" fill="#ffffff"/>
<use xlink:href="#font_1_5" transform="matrix(14.3462,0,0,-14.3462,131.15048,16.400116)" fill="#ffffff"/>
<use xlink:href="#font_1_9" transform="matrix(14.3462,0,0,-14.3462,138.92613,16.271)" fill="#ffffff"/>
<use xlink:href="#font_1_14" transform="matrix(14.3462,0,0,-14.3462,143.99034,16.328385)" fill="#ffffff"/>
<use xlink:href="#font_1_9" transform="matrix(14.3462,0,0,-14.3462,152.75588,16.271)" fill="#ffffff"/>
<use xlink:href="#font_1_1" transform="matrix(14.3462,0,0,-14.3462,159.41208,7.5490486)" fill="#ffffff"/>
<use xlink:href="#font_1_15" transform="matrix(14.3462,0,0,-14.3462,158.16408,16.400116)" fill="#ffffff"/>
<use xlink:href="#font_1_12" transform="matrix(14.3462,0,0,-14.3462,167.00135,16.271)" fill="#ffffff"/>
<symbol id="font_1_2">
<path d="M .64100006 .261 L .49500004 .261 C .48600004 .168 .42700003 .126 .33400003 .126 C .21800003 .126 .15 .215 .15 .374 C .15 .535 .22100002 .62500008 .33900003 .62500008 C .42000003 .62500008 .47300003 .58800008 .49500004 .49400003 L .638 .49400003 C .625 .66200008 .49800007 .7530001 .33400003 .7530001 C .128 .7530001 0 .61200007 0 .37600003 C 0 .142 .127 0 .33 0 C .511 0 .632 .094000007 .64100006 .261 Z "/>
</symbol>
<symbol id="font_1_10">
<path d="M .534 .275 C .534 .45800004 .43500004 .558 .26600004 .558 C .10100001 .558 0 .45600004 0 .279 C 0 .10100001 .10100001 0 .26700003 0 C .43100003 0 .534 .102000009 .534 .275 M .39400003 .277 C .39400003 .17600002 .342 .113000009 .26700003 .113000009 C .19100002 .113000009 .14000002 .17600002 .14000002 .279 C .14000002 .38200004 .19100002 .44500003 .26700003 .44500003 C .344 .44500003 .39400003 .38300003 .39400003 .277 Z "/>
</symbol>
<symbol id="font_1_e">
<path d="M .76400008 0 L .76400008 .38200004 C .76400008 .48700003 .70000007 .549 .592 .549 C .52400007 .549 .476 .52500006 .43400003 .469 C .40800003 .52000007 .35400004 .549 .287 .549 C .22500003 .549 .185 .528 .13900002 .47300003 L .13900002 .54 L 0 .54 L 0 0 L .14 0 L .14 .324 C .14 .39000003 .17600002 .43 .236 .43 C .28300003 .43 .312 .40300004 .312 .36 L .312 0 L .45200003 0 L .45200003 .324 C .45200003 .39000003 .48800005 .43 .54800006 .43 C .595 .43 .624 .40300004 .624 .36 L .624 0 L .76400008 0 Z "/>
</symbol>
<symbol id="font_1_11">
<path d="M .516 .48800005 C .516 .648 .43100003 .767 .29000003 .767 C .222 .767 .17400001 .73800006 .14000002 .67800006 L .14000002 .758 L 0 .758 L 0 0 L .14000002 0 L .14000002 .29000003 C .17400001 .23 .222 .209 .29000003 .209 C .42000003 .209 .516 .324 .516 .48800005 M .37600003 .486 C .37600003 .388 .32700003 .326 .25800003 .326 C .18800001 .326 .14000002 .38700003 .14000002 .48800005 C .14000002 .58900007 .18800001 .65000006 .25800003 .65000006 C .32900004 .65000006 .37600003 .58900007 .37600003 .486 Z "/>
</symbol>
<symbol id="font_1_16">
<path d="M .14000002 0 L .14000002 .54 L 0 .54 L 0 0 L .14000002 0 M .142 .605 L .142 .74500009 L .002000004 .74500009 L .002000004 .605 L .142 .605 Z "/>
</symbol>
<symbol id="font_1_f">
<path d="M .483 0 L .483 .36200003 C .483 .48100005 .41700004 .549 .30200003 .549 C .22900003 .549 .18 .522 .14000002 .462 L .14000002 .54 L 0 .54 L 0 0 L .14000002 0 L .14000002 .324 C .14000002 .388 .185 .43 .25300003 .43 C .31300003 .43 .34300003 .397 .34300003 .333 L .34300003 0 L .483 0 Z "/>
</symbol>
<symbol id="font_1_a">
<path d="M .507 .2 L .507 .758 L .374 .758 L .374 .675 C .33200003 .739 .286 .767 .224 .767 C .09600001 .767 0 .64900007 0 .482 C 0 .314 .08800001 .209 .22100002 .209 C .284 .209 .322 .22800002 .374 .28 L .374 .2 C .374 .135 .32500003 .09 .255 .09 C .20200002 .09 .167 .112 .15600002 .153 L .011 .153 C .013 .065 .102000009 0 .25 0 C .41300003 0 .507 .073 .507 .2 M .37600003 .48400004 C .37600003 .38600005 .32500003 .326 .252 .326 C .18600002 .326 .14000002 .38600005 .14000002 .48400004 C .14000002 .586 .18600002 .65000006 .254 .65000006 C .324 .65000006 .37600003 .58400008 .37600003 .48400004 Z "/>
</symbol>
<symbol id="font_1_c">
<path d="M .48900003 0 L .292 .33600004 L .476 .54 L .317 .54 L .14000002 .33 L .14000002 .72900006 L 0 .72900006 L 0 0 L .14000002 0 L .14000002 .177 L .19600003 .238 L .325 0 L .48900003 0 Z "/>
</symbol>
<use xlink:href="#font_1_2" transform="matrix(14.3462,0,0,-14.3462,63.341234,32.809156)" fill="#ffffff"/>
<use xlink:href="#font_1_10" transform="matrix(14.3462,0,0,-14.3462,73.57007,32.766119)" fill="#ffffff"/>
<use xlink:href="#font_1_e" transform="matrix(14.3462,0,0,-14.3462,82.69425,32.637)" fill="#ffffff"/>
<use xlink:href="#font_1_11" transform="matrix(14.3462,0,0,-14.3462,95.49106,35.764474)" fill="#ffffff"/>
<use xlink:href="#font_1_15" transform="matrix(14.3462,0,0,-14.3462,104.256587,32.766119)" fill="#ffffff"/>
<use xlink:href="#font_1_14" transform="matrix(14.3462,0,0,-14.3462,112.39088,32.694387)" fill="#ffffff"/>
<use xlink:href="#font_1_8" transform="matrix(14.3462,0,0,-14.3462,117.2112,32.766119)" fill="#ffffff"/>
<use xlink:href="#font_1_12" transform="matrix(14.3462,0,0,-14.3462,125.77588,32.637)" fill="#ffffff"/>
<use xlink:href="#font_1_d" transform="matrix(14.3462,0,0,-14.3462,131.34221,32.637)" fill="#ffffff"/>
<use xlink:href="#font_1_16" transform="matrix(14.3462,0,0,-14.3462,135.33046,32.637)" fill="#ffffff"/>
<use xlink:href="#font_1_f" transform="matrix(14.3462,0,0,-14.3462,139.26132,32.637)" fill="#ffffff"/>
<use xlink:href="#font_1_a" transform="matrix(14.3462,0,0,-14.3462,147.61083,35.764474)" fill="#ffffff"/>
<use xlink:href="#font_1_15" transform="matrix(14.3462,0,0,-14.3462,156.72066,32.766119)" fill="#ffffff"/>
<use xlink:href="#font_1_16" transform="matrix(14.3462,0,0,-14.3462,165.61531,32.637)" fill="#ffffff"/>
<use xlink:href="#font_1_13" transform="matrix(14.3462,0,0,-14.3462,169.05841,32.766119)" fill="#ffffff"/>
<use xlink:href="#font_1_14" transform="matrix(14.3462,0,0,-14.3462,176.8197,32.694387)" fill="#ffffff"/>
<use xlink:href="#font_1_16" transform="matrix(14.3462,0,0,-14.3462,182.35733,32.637)" fill="#ffffff"/>
<use xlink:href="#font_1_c" transform="matrix(14.3462,0,0,-14.3462,186.2308,32.637)" fill="#ffffff"/>
<symbol id="font_1_7">
<path d="M .51600006 .009000001 L .51600006 .73800006 L .37600003 .73800006 L .37600003 .47900004 C .341 .53300008 .294 .558 .22700002 .558 C .098000008 .558 0 .441 0 .27800004 C 0 .125 .08400001 0 .22700002 0 C .294 0 .341 .025000003 .37600003 .071 L .37600003 .009000001 L .51600006 .009000001 M .37600003 .27600003 C .37600003 .17800002 .328 .117000009 .258 .117000009 C .18800001 .117000009 .14000002 .179 .14000002 .27800004 C .14000002 .37800003 .18800001 .441 .258 .441 C .329 .441 .37600003 .379 .37600003 .27600003 Z "/>
</symbol>
<symbol id="font_1_4">
<path d="M .601 .231 C .601 .34600003 .54300007 .4 .40800003 .42600004 L .294 .448 C .187 .469 .156 .49 .156 .54300007 C .156 .59800007 .20500002 .6330001 .282 .6330001 C .377 .6330001 .435 .59300008 .435 .51900008 L .57500007 .51900008 C .57500007 .67300006 .467 .7530001 .289 .7530001 C .11400001 .7530001 .013 .67100009 .013 .52900007 C .013 .41500003 .07000001 .36200003 .218 .333 L .32000003 .31300003 C .42000003 .293 .45700003 .272 .45700003 .213 C .45700003 .152 .40100003 .120000008 .31 .120000008 C .208 .120000008 .146 .163 .146 .24100001 L 0 .24100001 C 0 .08500001 .116 0 .30200003 0 C .49 0 .601 .083000008 .601 .231 Z "/>
</symbol>
<use xlink:href="#font_1_15" transform="matrix(14.3462,0,0,-14.3462,63.440084,50.624116)" fill="#747474"/>
<use xlink:href="#font_1_f" transform="matrix(14.3462,0,0,-14.3462,72.277339,50.495)" fill="#747474"/>
<use xlink:href="#font_1_7" transform="matrix(14.3462,0,0,-14.3462,80.55509,50.624116)" fill="#747474"/>
<use xlink:href="#font_1_4" transform="matrix(14.3462,0,0,-14.3462,93.3519,50.667154)" fill="#747474"/>
<use xlink:href="#font_1_11" transform="matrix(14.3462,0,0,-14.3462,103.293819,53.62247)" fill="#747474"/>
<use xlink:href="#font_1_12" transform="matrix(14.3462,0,0,-14.3462,112.13107,50.495)" fill="#747474"/>
<use xlink:href="#font_1_5" transform="matrix(14.3462,0,0,-14.3462,117.281368,50.624116)" fill="#747474"/>
<use xlink:href="#font_1_6" transform="matrix(14.3462,0,0,-14.3462,125.343929,50.624116)" fill="#747474"/>
<use xlink:href="#font_1_b" transform="matrix(14.3462,0,0,-14.3462,133.79384,50.495)" fill="#747474"/>
<use xlink:href="#font_1_14" transform="matrix(14.3462,0,0,-14.3462,141.79903,50.552385)" fill="#747474"/>
<use xlink:href="#font_1_8" transform="matrix(14.3462,0,0,-14.3462,146.61934,50.624116)" fill="#747474"/>
<use xlink:href="#font_1_6" transform="matrix(14.3462,0,0,-14.3462,154.76799,50.624116)" fill="#747474"/>
<use xlink:href="#font_1_b" transform="matrix(14.3462,0,0,-14.3462,163.2179,50.495)" fill="#747474"/>
<use xlink:href="#font_1_f" transform="matrix(14.3462,0,0,-14.3462,171.92604,50.495)" fill="#747474"/>
<use xlink:href="#font_1_10" transform="matrix(14.3462,0,0,-14.3462,180.28989,50.624116)" fill="#747474"/>
<use xlink:href="#font_1_d" transform="matrix(14.3462,0,0,-14.3462,189.5145,50.495)" fill="#747474"/>
<use xlink:href="#font_1_10" transform="matrix(14.3462,0,0,-14.3462,193.04367,50.624116)" fill="#747474"/>
<use xlink:href="#font_1_a" transform="matrix(14.3462,0,0,-14.3462,201.79486,53.62247)" fill="#747474"/>
<use xlink:href="#font_1_16" transform="matrix(14.3462,0,0,-14.3462,211.03382,50.495)" fill="#747474"/>
<use xlink:href="#font_1_8" transform="matrix(14.3462,0,0,-14.3462,214.37648,50.624116)" fill="#747474"/>
<symbol id="font_2_1">
<path d="M 0 .558 L 0 .545 L .0029999987 .541 L .11000001 .568 C .11100001 .55700007 .11100001 .54800006 .11200001 .54 C .113 .531 .113 .521 .114 .51000007 C .114 .49900005 .114 .48400004 .114 .46800003 L .114 .40100003 L .114 .238 L .114 .18 C .114 .165 .114 .152 .114 .14 C .113 .13 .113 .120000008 .11200001 .112 C .11100001 .10300001 .11100001 .095000009 .11000001 .086 C .109000008 .07300001 .106 .062000004 .101 .055000005 C .09600001 .048000006 .091 .042000005 .086 .037 C .081 .032 .071 .028 .058 .026000003 C .044 .023000002 .031999999 .022000002 .020999998 .022000002 L .018 .018000002 L .015999999 .004 L .018 0 C .023000002 0 .030000002 0 .038999998 .0010000002 C .048 .002 .058 .002 .069000009 .002 C .080000009 .003 .089999999 .003 .099 .004 C .108 .004 .115 .004 .12 .004 L .17700002 .004 C .18200001 .004 .18900001 .004 .19800002 .004 C .20700002 .003 .21700001 .003 .22800002 .002 C .23900002 .002 .24900002 .002 .25800003 .0010000002 C .26700003 0 .27400003 0 .279 0 L .28100003 .004 L .279 .017 L .27400003 .022000002 C .26400004 .022000002 .25300003 .023000002 .24000001 .026000003 C .22700003 .029000001 .21800003 .032 .21200001 .037 C .20700002 .042000005 .20200002 .048000006 .197 .054 C .192 .062000004 .18900001 .072000008 .188 .086 C .187 .097 .18600002 .108 .18600002 .117000009 C .185 .126 .185 .137 .18400002 .149 C .18400002 .161 .18400002 .176 .18400002 .194 L .18400002 .26200003 L .18400002 .40300004 L .18400002 .47200004 C .18400002 .49000005 .18400002 .50500008 .18400002 .518 C .185 .531 .185 .54200008 .18600002 .55100008 C .18600002 .56000009 .18600002 .57000008 .187 .58100005 C .187 .58500006 .187 .59000006 .188 .59700009 C .188 .60400006 .188 .61100009 .188 .61800006 C .18900001 .62500008 .18900001 .632 .19 .64000007 C .19 .646 .19 .65300008 .19100002 .65800008 L .169 .66700008 L .162 .66700008 C .137 .64400008 .11100001 .624 .085 .60800006 C .059 .59300008 .031999999 .578 .0029999987 .564 L 0 .558 Z "/>
</symbol>
<use xlink:href="#font_2_1" transform="matrix(9.9626,0,0,-9.9626,134.71843,89.45585)"/>
</g>
</svg>
